00100000000000100000000100000000 # 0:  ADDI $2, $0, 256    # $s2 = $0 + 256
00100000000000010000000001000000 # 2:  ADDI $1, $0, 64    # $s1 = $0 + 64
00100000001000010000000001000000 # 3:  ADDI $1, $1, 64    # $s1 = $1 + 64
00010000001000100000000000000001 # 4:  BEQ  $1, $2, 1     # if ($1 == $2) goto EOP
00001000000000000000000000000010 # 5:  J 2                # Jump back up to line 3
00100000000000100000000100000000 # 1:  ADDI $2, $0, 256    # $s2 = $0 + 256
11111100000000000000000000000000 # 6:  EOP		          # End of Program